%YAML 1.1
%TAG !u! tag:unity3d.com,2011:
--- !u!114 &11400000
MonoBehaviour:
  m_ObjectHideFlags: 0
  m_CorrespondingSourceObject: {fileID: 0}
  m_PrefabInstance: {fileID: 0}
  m_PrefabAsset: {fileID: 0}
  m_GameObject: {fileID: 0}
  m_Enabled: 1
  m_EditorHideFlags: 0
  m_Script: {fileID: 11500000, guid: 6730927bef4eb84429a0b34e41b6c3d5, type: 3}
  m_Name: PlayerOne
  m_EditorClassIdentifier: 
  _isJoystick: 0
  _left: 97
  _right: 100
  _up: 119
  _down: 115
  _jetpack: 98
  _shoot: 118
  _horizontal: JoyHorizontalPad
  _vertical: JoyVerticalPad
  _joyJetpack: JoyJump
  _joyShoot: JoyShot
